…
Investigate

Month Year

tx_injuries_ym <- tx_injuries_2 %>% 
  mutate(month = month(injury_date),
         year = year(injury_date)) %>% 
  group_by(year, month) %>% 
  summarise(injuries = n())

tx_injuries_ym

## # A tibble: 50 x 3
## # Groups:   year [5]
##     year month injuries
##    <dbl> <dbl>    <int>
##  1  2013     2        1
##  2  2013     3       11
##  3  2013     4       10
##  4  2013     5        9
##  5  2013     6       25
##  6  2013     7       35
##  7  2013     8       21
##  8  2013     9        9
##  9  2013    10        1
## 10  2013    11        1
## # ... with 40 more rows
